3 Day Four Practical – Final Version of Assignment One
…
library(nycflights13)

Warning: package 'nycflights13' was built under R version 4.3.3

#The line below renames the first 10 columns of flights and prints the flights data set
#with the arrival times arranged in ascending order

flights |> rename(Year = year, Month = month, Day = day, Dep_Time = dep_time,
                  Sched_Dep_Time = sched_dep_time, Dep_Delay = dep_delay,
                  Arr_Time = arr_time, Sched_Arr_Time = sched_arr_time,
                  Arr_Delay = arr_delay, Carrier = carrier) |> arrange(Arr_Time)

# A tibble: 336,776 × 19
    Year Month   Day Dep_Time Sched_Dep_Time Dep_Delay Arr_Time Sched_Arr_Time
   <int> <int> <int>    <int>          <int>     <dbl>    <int>          <int>
 1  2013     1     2     2130           2130         0        1             18
 2  2013     1    11     2157           2000       117        1           2208
 3  2013     1    11     2253           2249         4        1           2357
 4  2013     1    14     2122           2130        -8        1              2
 5  2013     1    14     2246           2250        -4        1              7
 6  2013     1    15     2304           2245        19        1           2357
 7  2013     1    16     2018           2025        -7        1           2329
 8  2013     1    16     2303           2245        18        1           2357
 9  2013     1    19     2107           2110        -3        1           2355
10  2013     1    22     2246           2249        -3        1           2357
# ℹ 336,766 more rows
# ℹ 11 more variables: Arr_Delay <dbl>, Carrier <chr>, flight <int>,
#   tailnum <chr>, origin <chr>, dest <chr>, air_time <dbl>, distance <dbl>,
#   hour <dbl>, minute <dbl>, time_hour <dttm>
…
print('Explanation of NA: Carrier OO has NA as the standard deviation of the distance,
      that is because as shown by the code above, there is only one entry thus the 
      standard deviation can\'t be calculated since sd is a measure of how spread 
      apart data points are from each other, with only one distance entry there is
      no spread.')

[1] "Explanation of NA: Carrier OO has NA as the standard deviation of the distance,\n      that is because as shown by the code above, there is only one entry thus the \n      standard deviation can't be calculated since sd is a measure of how spread \n      apart data points are from each other, with only one distance entry there is\n      no spread."

########## ZERO ##############

carrierYV <- flight1 |> filter(carrier == 'YV') |> select(carrier, distance)

carrierYV

# A tibble: 46 × 2
   carrier distance
   <chr>      <dbl>
 1 YV           229
 2 YV           229
 3 YV           229
 4 YV           229
 5 YV           229
 6 YV           229
 7 YV           229
 8 YV           229
 9 YV           229
10 YV           229
# ℹ 36 more rows
…
  Prop_Delayed
1    0.1052391

♡♡♡♡♡♡♡♡♡♡♡♡♡♡♡♡ QUESTION SIX ♡♡♡♡♡♡♡♡♡♡♡♡♡♡♡♡♡♡

routes <- flights |> group_by(origin, dest) |> 
  summarize(n_airlines = n_distinct(carrier)) |> filter(n_airlines > 1)

`summarise()` has grouped output by 'origin'. You can override using the
`.groups` argument.

routes

# A tibble: 128 × 3
# Groups:   origin [3]
   origin dest  n_airlines
   <chr>  <chr>      <int>
 1 EWR    ATL            4
 2 EWR    AUS            2
 3 EWR    BDL            2
 4 EWR    BNA            2
 5 EWR    BOS            3
 6 EWR    BWI            2
 7 EWR    CHS            2
 8 EWR    CLE            2
 9 EWR    CLT            3
10 EWR    CVG            2
# ℹ 118 more rows

#Joining the routes with at least two airlines with rest of the flights data
joint <- routes |> left_join(flights, by = join_by(origin, dest))

#Grouping to get each route+carrier combo then calc it's average arrival delay
joint2 <- joint |> group_by(origin, dest, carrier) |>
  summarise(Av_Arr_Delay = mean(arr_delay, na.rm = TRUE))

`summarise()` has grouped output by 'origin', 'dest'. You can override using
the `.groups` argument.

joint2

# A tibble: 343 × 4
# Groups:   origin, dest [128]
   origin dest  carrier Av_Arr_Delay
   <chr>  <chr> <chr>          <dbl>
 1 EWR    ATL   9E             -6.25
 2 EWR    ATL   DL             10.00
 3 EWR    ATL   EV             19.5 
 4 EWR    ATL   UA             10.5 
 5 EWR    AUS   UA              4.28
 6 EWR    AUS   WN            -11.2 
 7 EWR    BDL   EV              6.78
 8 EWR    BDL   UA             22.6 
 9 EWR    BNA   EV             17.7 
10 EWR    BNA   WN             -2.13
# ℹ 333 more rows
…
`summarise()` has grouped output by 'origin'. You can override using the
`.groups` argument.

best2 <- best |> left_join(joint2, join_by(best_av_arr_delay == Av_Arr_Delay)) |>
  select(!origin.y) |> select(!dest.y)

Warning in left_join(best, joint2, join_by(best_av_arr_delay == Av_Arr_Delay)): Detected an unexpected many-to-many relationship between `x` and `y`.
ℹ Row 17 of `x` matches multiple rows in `y`.
ℹ Row 41 of `y` matches multiple rows in `x`.
ℹ If a many-to-many relationship is expected, set `relationship =
  "many-to-many"` to silence this warning.

best2

# A tibble: 134 × 4
   origin.x dest.x best_av_arr_delay carrier
   <chr>    <chr>              <dbl> <chr>  
 1 EWR      ATL               -6.25  9E     
 2 EWR      AUS              -11.2   WN     
 3 EWR      BDL                6.78  EV     
 4 EWR      BNA               -2.13  WN     
 5 EWR      BOS               -4.01  EV     
 6 EWR      BWI                5.95  WN     
 7 EWR      CHS              -14     UA     
 8 EWR      CLE               -3.71  EV     
 9 EWR      CLT                0.920 US     
10 EWR      CVG                1.40  9E     
# ℹ 124 more rows
…
`summarise()` has grouped output by 'origin'. You can override using the
`.groups` argument.

worst2 <- worst |> left_join(joint2, join_by(worst_av_arr_delay == Av_Arr_Delay)) |> 
  select(!origin.y) |> select(!dest.y)

Warning in left_join(worst, joint2, join_by(worst_av_arr_delay == Av_Arr_Delay)): Detected an unexpected many-to-many relationship between `x` and `y`.
ℹ Row 75 of `x` matches multiple rows in `y`.
ℹ Row 194 of `y` matches multiple rows in `x`.
ℹ If a many-to-many relationship is expected, set `relationship =
  "many-to-many"` to silence this warning.

worst2

# A tibble: 130 × 4
   origin.x dest.x worst_av_arr_delay carrier
   <chr>    <chr>               <dbl> <chr>  
 1 EWR      ATL                 19.5  EV     
 2 EWR      AUS                  4.28 UA     
 3 EWR      BDL                 22.6  UA     
 4 EWR      BNA                 17.7  EV     
 5 EWR      BOS                  6.87 B6     
 6 EWR      BWI                 20.1  EV     
 7 EWR      CHS                 16.2  EV     
 8 EWR      CLE                  5.97 UA     
 9 EWR      CLT                 20.5  EV     
10 EWR      CVG                 21.2  EV     
# ℹ 120 more rows

#Combining

results <- best2 |> left_join(worst2, join_by(origin.x, dest.x))

Warning in left_join(best2, worst2, join_by(origin.x, dest.x)): Detected an unexpected many-to-many relationship between `x` and `y`.
ℹ Row 77 of `x` matches multiple rows in `y`.
ℹ Row 17 of `y` matches multiple rows in `x`.
ℹ If a many-to-many relationship is expected, set `relationship =
  "many-to-many"` to silence this warning.

results

# A tibble: 136 × 6
   origin.x dest.x best_av_arr_delay carrier.x worst_av_arr_delay carrier.y
   <chr>    <chr>              <dbl> <chr>                  <dbl> <chr>    
 1 EWR      ATL               -6.25  9E                     19.5  EV       
 2 EWR      AUS              -11.2   WN                      4.28 UA       
 3 EWR      BDL                6.78  EV                     22.6  UA       
 4 EWR      BNA               -2.13  WN                     17.7  EV       
 5 EWR      BOS               -4.01  EV                      6.87 B6       
 6 EWR      BWI                5.95  WN                     20.1  EV       
 7 EWR      CHS              -14     UA                     16.2  EV       
 8 EWR      CLE               -3.71  EV                      5.97 UA       
 9 EWR      CLT                0.920 US                     20.5  EV       
10 EWR      CVG                1.40  9E                     21.2  EV       
# ℹ 126 more rows
…
